{
    "cs": {
        "loading.couldnt-load-data": "Nelze načíst!",
        "loading.couldnt-load-post": "Nelze načíst příspěvek!",
        "command.help.title": "Použití příkazu",
        "command.unknown_command": "Neplatné použití příkazu!",
        "nsfw.channel": "Nemůžeš používat tento příkaz v místnosti bez povoleného NSFW!"
    },
    "en": {
        "loading.couldnt-load-data": "Couldn't load data!",
        "loading.couldnt-load-post": "Couldn't load post!",
        "command.help.title": "Usage of command",
        "command.unknown_command": "Invalid usage of command!",
        "nsfw.channel": "You cant use this command in none NSFW room!"
    }
}
